^E:\PWR\SEM 4\PAMSI\GRAFY\GRAFY\GRAFY\X64\DEBUG\GRAFY.OBJ|E:\PWR\SEM 4\PAMSI\GRAFY\GRAFY\GRAFY\X64\DEBUG\GRAPH_LISTA.OBJ|E:\PWR\SEM 4\PAMSI\GRAFY\GRAFY\GRAFY\X64\DEBUG\GRAPH_MATRIX.OBJ|E:\PWR\SEM 4\PAMSI\GRAFY\GRAFY\GRAFY\X64\DEBUG\STDAFX.OBJ
E:\PWR\SEM 4\PAMSI\GRAFY\GRAFY\X64\DEBUG\GRAFY.ILK
E:\PWR\SEM 4\PAMSI\GRAFY\GRAFY\X64\DEBUG\GRAFY.EXE
E:\PWR\SEM 4\PAMSI\GRAFY\GRAFY\X64\DEBUG\GRAFY.PDB
