^E:\PWR\SEM 4\PAMSI\GRAFY\GRAFY\GRAFY\X64\DEBUG\GRAFY.OBJ|E:\PWR\SEM 4\PAMSI\GRAFY\GRAFY\GRAFY\X64\DEBUG\GRAPH_LISTA.OBJ|E:\PWR\SEM 4\PAMSI\GRAFY\GRAFY\GRAFY\X64\DEBUG\GRAPH_MATRIX.OBJ|E:\PWR\SEM 4\PAMSI\GRAFY\GRAFY\GRAFY\X64\DEBUG\STDAFX.OBJ
C:\WINDOWS\GLOBALIZATION\SORTING\SORTDEFAULT.NLS
C:\PROGRAM FILES (X86)\WINDOWS KITS\8.1\LIB\WINV6.3\UM\X64\KERNEL32.LIB
C:\PROGRAM FILES (X86)\WINDOWS KITS\8.1\LIB\WINV6.3\UM\X64\USER32.LIB
C:\PROGRAM FILES (X86)\WINDOWS KITS\8.1\LIB\WINV6.3\UM\X64\GDI32.LIB
C:\PROGRAM FILES (X86)\WINDOWS KITS\8.1\LIB\WINV6.3\UM\X64\WINSPOOL.LIB
C:\PROGRAM FILES (X86)\WINDOWS KITS\8.1\LIB\WINV6.3\UM\X64\COMDLG32.LIB
C:\PROGRAM FILES (X86)\WINDOWS KITS\8.1\LIB\WINV6.3\UM\X64\ADVAPI32.LIB
C:\PROGRAM FILES (X86)\WINDOWS KITS\8.1\LIB\WINV6.3\UM\X64\SHELL32.LIB
C:\PROGRAM FILES (X86)\WINDOWS KITS\8.1\LIB\WINV6.3\UM\X64\OLE32.LIB
C:\PROGRAM FILES (X86)\WINDOWS KITS\8.1\LIB\WINV6.3\UM\X64\OLEAUT32.LIB
C:\PROGRAM FILES (X86)\WINDOWS KITS\8.1\LIB\WINV6.3\UM\X64\UUID.LIB
C:\PROGRAM FILES (X86)\WINDOWS KITS\8.1\LIB\WINV6.3\UM\X64\ODBC32.LIB
C:\PROGRAM FILES (X86)\WINDOWS KITS\8.1\LIB\WINV6.3\UM\X64\ODBCCP32.LIB
E:\PWR\SEM 4\PAMSI\GRAFY\GRAFY\GRAFY\X64\DEBUG\GRAFY.OBJ
E:\PWR\SEM 4\PAMSI\GRAFY\GRAFY\GRAFY\X64\DEBUG\GRAPH_LISTA.OBJ
E:\PWR\SEM 4\PAMSI\GRAFY\GRAFY\GRAFY\X64\DEBUG\GRAPH_MATRIX.OBJ
E:\PWR\SEM 4\PAMSI\GRAFY\GRAFY\GRAFY\X64\DEBUG\STDAFX.OBJ
C:\WINDOWS\SYSTEM32\TZRES.DLL
F:\PROGRAMY\VISUAL 2015\VC\LIB\AMD64\MSVCPRTD.LIB
F:\PROGRAMY\VISUAL 2015\VC\LIB\AMD64\MSVCRTD.LIB
F:\PROGRAMY\VISUAL 2015\VC\LIB\AMD64\OLDNAMES.LIB
F:\PROGRAMY\VISUAL 2015\VC\LIB\AMD64\VCRUNTIMED.LIB
C:\PROGRAM FILES (X86)\WINDOWS KITS\10\LIB\10.0.10240.0\UCRT\X64\UCRTD.LIB
